cpu_multicycle.vcd
$date
	Fri Dec 13 17:03:10 2019
$end
$version
	Icarus Verilog
$end
$timescale
	1ps
$end
$scope module cpu_multicycle $end
$var wire 32 ! sigext16_32_out [31:0] $end
$var wire 32 " shl2_2_out [31:0] $end
$var wire 28 # shl2_1_out [27:0] $end
$var wire 32 $ r_data_2 [31:0] $end
$var wire 32 % r_data_1 [31:0] $end
$var wire 32 & r_data [31:0] $end
$var wire 32 ' pc_out [31:0] $end
$var wire 32 ( pc_in [31:0] $end
$var wire 1 ) or_out $end
$var wire 32 * mux_4_out [31:0] $end
$var wire 32 + mux_3_out [31:0] $end
$var wire 5 , mux_2_out [4:0] $end
$var wire 32 - mux_1_out [31:0] $end
$var wire 32 . mux4_1_out [31:0] $end
$var wire 32 / mdr_out [31:0] $end
$var wire 32 0 inst [31:0] $end
$var wire 32 1 d_ff_B_out [31:0] $end
$var wire 32 2 d_ff_A_out [31:0] $end
$var wire 1 3 and_out $end
$var wire 32 4 aluout_out [31:0] $end
$var wire 1 5 alu_zero $end
$var wire 32 6 alu_out [31:0] $end
$var wire 1 7 RegWr $end
$var wire 1 8 RegDst $end
$var wire 1 9 PCWrCond $end
$var wire 1 : PCWr $end
$var wire 2 ; PCSrc [1:0] $end
$var wire 1 < MemtoReg $end
$var wire 1 = MemWr $end
$var wire 1 > MemRd $end
$var wire 1 ? IorD $end
$var wire 1 @ IRWr $end
$var wire 2 A ALUSrcB [1:0] $end
$var wire 1 B ALUSrcA $end
$var wire 2 C ALUOp [1:0] $end
$var wire 3 D ALUCtrl [2:0] $end
$var reg 1 E clk $end
$var reg 32 F pc4 [31:0] $end
$scope module alu $end
$var wire 3 G M [2:0] $end
$var wire 32 H B [31:0] $end
$var wire 32 I A [31:0] $end
$var reg 32 J C [31:0] $end
$var reg 1 5 Z $end
$upscope $end
$scope module alucu $end
$var wire 6 K Funct [5:0] $end
$var wire 2 L ALUOp [1:0] $end
$var reg 3 M ALUCtrl [2:0] $end
$upscope $end
$scope module aluout $end
$var wire 32 N D [31:0] $end
$var wire 1 E clk $end
$var reg 32 O Q [31:0] $end
$upscope $end
$scope module and1 $end
$var wire 1 5 B $end
$var wire 1 9 A $end
$var reg 1 3 C $end
$upscope $end
$scope module controller $end
$var wire 6 P Func [5:0] $end
$var wire 6 Q Op [5:0] $end
$var wire 1 E clk $end
$var reg 2 R ALUOp [1:0] $end
$var reg 1 B ALUSrcA $end
$var reg 2 S ALUSrcB [1:0] $end
$var reg 1 @ IRWr $end
$var reg 1 ? IorD $end
$var reg 1 > MemRd $end
$var reg 1 = MemWr $end
$var reg 1 < MemtoReg $end
$var reg 2 T PCSrc [1:0] $end
$var reg 1 : PCWr $end
$var reg 1 9 PCWrCond $end
$var reg 1 8 RegDst $end
$var reg 1 7 RegWr $end
$var reg 5 U nextstate [4:0] $end
$var reg 5 V state [4:0] $end
$upscope $end
$scope module d_ff_A $end
$var wire 1 E clk $end
$var wire 32 W D [31:0] $end
$var reg 32 X Q [31:0] $end
$upscope $end
$scope module d_ff_B $end
$var wire 1 E clk $end
$var wire 32 Y D [31:0] $end
$var reg 32 Z Q [31:0] $end
$upscope $end
$scope module ir $end
$var wire 1 @ Wr $end
$var wire 1 E clk $end
$var wire 32 [ D [31:0] $end
$var reg 32 \ inst [31:0] $end
$upscope $end
$scope module mdr $end
$var wire 1 E clk $end
$var wire 32 ] D [31:0] $end
$var reg 32 ^ Q [31:0] $end
$upscope $end
$scope module memory $end
$var wire 1 > MemRd $end
$var wire 1 = MemWr $end
$var wire 32 _ W_data [31:0] $end
$var wire 32 ` addr [31:0] $end
$var reg 32 a R_data [31:0] $end
$upscope $end
$scope module mux4_1 $end
$var wire 32 b A [31:0] $end
$var wire 32 c B [31:0] $end
$var wire 2 d sel [1:0] $end
$var wire 32 e D [31:0] $end
$var wire 32 f C [31:0] $end
$var reg 32 g out [31:0] $end
$upscope $end
$scope module mux4_2 $end
$var wire 32 h A [31:0] $end
$var wire 32 i B [31:0] $end
$var wire 32 j C [31:0] $end
$var wire 32 k D [31:0] $end
$var wire 2 l sel [1:0] $end
$var reg 32 m out [31:0] $end
$upscope $end
$scope module mux_1 $end
$var wire 32 n B [31:0] $end
$var wire 1 ? sel $end
$var wire 32 o A [31:0] $end
$var reg 32 p out [31:0] $end
$upscope $end
$scope module mux_2 $end
$var wire 32 q A [31:0] $end
$var wire 32 r B [31:0] $end
$var wire 1 8 sel $end
$var reg 32 s out [31:0] $end
$upscope $end
$scope module mux_3 $end
$var wire 32 t A [31:0] $end
$var wire 32 u B [31:0] $end
$var wire 1 < sel $end
$var reg 32 v out [31:0] $end
$upscope $end
$scope module mux_4 $end
$var wire 32 w B [31:0] $end
$var wire 1 B sel $end
$var wire 32 x A [31:0] $end
$var reg 32 y out [31:0] $end
$upscope $end
$scope module or1 $end
$var wire 1 3 A $end
$var wire 1 : B $end
$var reg 1 ) C $end
$upscope $end
$scope module pc $end
$var wire 32 z D [31:0] $end
$var wire 1 ) Wr $end
$var wire 1 E clk $end
$var reg 32 { Q [31:0] $end
$upscope $end
$scope module regfile $end
$var wire 1 E clk $end
$var wire 32 | data_in [31:0] $end
$var wire 32 } data_out_1 [31:0] $end
$var wire 32 ~ data_out_2 [31:0] $end
$var wire 5 !" r_addr_1 [4:0] $end
$var wire 5 "" r_addr_2 [4:0] $end
$var wire 5 #" w_addr [4:0] $end
$var wire 1 7 we $end
$var integer 32 $" i [31:0] $end
$upscope $end
$scope module shl2_1 $end
$var wire 26 %" A [25:0] $end
$var wire 28 &" B [27:0] $end
$upscope $end
$scope module shl2_2 $end
$var wire 32 '" B [31:0] $end
$var wire 32 (" A [31:0] $end
$upscope $end
$scope module sigext16_32 $end
$var wire 16 )" A [15:0] $end
$var wire 32 *" B [31:0] $end
$upscope $end
$upscope $end
$enddefinitions $end
#0
$dumpvars
b0xxxxxxxxxxxxxxxx *"
bx )"
b0xxxxxxxxxxxxxxxx ("
b0xxxxxxxxxxxxxxxx00 '"
bx00 &"
bx %"
b100000 $"
bx #"
bx ""
bx !"
bx ~
bx }
bx |
b0 {
b100 z
b0 y
b0 x
bx w
bx v
bx u
bx t
bx s
b0xxxxx r
b0xxxxx q
b0 p
b0 o
bx n
b100 m
b0 l
bx k
b0xxxxxxxxxxxxxxxxxxxxxxxxxx00 j
bx i
b100 h
b100 g
b0xxxxxxxxxxxxxxxx f
b0xxxxxxxxxxxxxxxx00 e
b1 d
b100 c
bx b
b1010010110100100000100000 a
b0 `
bx _
bx ^
b1010010110100100000100000 ]
bx \
b1010010110100100000100000 [
bx Z
bx Y
bx X
bx W
b0 V
b1 U
b0 T
b1 S
b0 R
bx Q
bx P
bx O
b100 N
b100 M
b0 L
bx K
b100 J
b0 I
b100 H
b100 G
b100 F
0E
b100 D
b0 C
0B
b1 A
1@
0?
1>
0=
0<
b0 ;
1:
09
x8
07
b100 6
05
bx 4
03
bx 2
bx 1
bx 0
bx /
b100 .
b0 -
bx ,
bx +
b0 *
1)
b100 (
b0 '
b1010010110100100000100000 &
bx %
bx $
bx00 #
b0xxxxxxxxxxxxxxxx00 "
b0xxxxxxxxxxxxxxxx !
$end
#10000
05
b10010000010000100 (
b10010000010000100 m
b10010000010000100 z
b10010000010000100 6
b10010000010000100 J
b10010000010000100 N
b10010000010000100 h
b100 *
b100 I
b100 y
b100 -
b100 `
b100 p
b100 +
b100 v
b100 |
b10010000010000000 "
b10010000010000000 e
b10010000010000000 '"
b110 U
b100000 K
b101001011010010000010000000 j
b101001011010010000010000000 #
b101001011010010000010000000 &"
b1010010110100100000100000 %"
b100100000100000 !
b100100000100000 f
b100100000100000 ("
b100100000100000 *"
b100100000100000 )"
b1011 $
b1011 Y
b1011 ~
b1011 ""
b1010 %
b1010 W
b1010 }
b1010 !"
b1001 r
b1011 q
b100000 P
b0 Q
0)
b10010000010000000 .
b10010000010000000 H
b10010000010000000 g
b100 '
b100 o
b100 x
b100 {
b1010010110100100000100000 0
b1010010110100100000100000 \
b1010010110100100000100000 /
b1010010110100100000100000 ^
b1010010110100100000100000 u
b100 4
b100 O
b100 i
b100 n
b100 t
0:
b11 A
b11 S
b11 d
0@
0>
b1 V
1E
#20000
0E
#30000
05
b10101 (
b10101 m
b10101 z
b10101 6
b10101 J
b10101 N
b10101 h
b10010000010000100 +
b10010000010000100 v
b10010000010000100 |
b1011 .
b1011 H
b1011 g
b1010 *
b1010 I
b1010 y
b10010000010000100 4
b10010000010000100 O
b10010000010000100 i
b10010000010000100 n
b10010000010000100 t
b1011 1
b1011 Z
b1011 _
b1011 b
b1010 2
b1010 X
b1010 k
b1010 w
b111 U
b10 C
b10 L
b10 R
b0 A
b0 S
b0 d
1B
b110 V
1E
#40000
0E
#50000
b10101 +
b10101 v
b10101 |
b1001 ,
b1001 #"
b1001 s
b10101 4
b10101 O
b10101 i
b10101 n
b10101 t
b0 U
17
18
b111 V
1E
#60000
0E
#70000
b1000 (
b1000 m
b1000 z
b1000 6
b1000 J
b1000 N
b1000 h
1)
b100 .
b100 H
b100 g
b100 *
b100 I
b100 y
b10001101001011000000000000000010 &
b10001101001011000000000000000010 [
b10001101001011000000000000000010 ]
b10001101001011000000000000000010 a
07
b1 U
1:
b0 C
b0 L
b0 R
b1 A
b1 S
b1 d
1@
0B
1>
b0 V
1E
#80000
0E
#90000
b10000 (
b10000 m
b10000 z
b0 ,
b0 #"
b0 s
b10000 6
b10000 J
b10000 N
b10000 h
b1000 *
b1000 I
b1000 y
b1000 -
b1000 `
b1000 p
b1000 +
b1000 v
b1000 |
b1000 "
b1000 e
b1000 '"
b10 K
b100101100000000000000001000 j
b100101100000000000000001000 #
b100101100000000000000001000 &"
b1001011000000000000000010 %"
b10 !
b10 f
b10 ("
b10 *"
b10 )"
b1100 $
b1100 Y
b1100 ~
b1100 ""
b1001 %
b1001 W
b1001 }
b1001 !"
b0 r
b1100 q
b10 P
b100011 Q
0)
b1000 .
b1000 H
b1000 g
b1000 '
b1000 o
b1000 x
b1000 {
b10001101001011000000000000000010 0
b10001101001011000000000000000010 \
b10001101001011000000000000000010 /
b10001101001011000000000000000010 ^
b10001101001011000000000000000010 u
b1000 4
b1000 O
b1000 i
b1000 n
b1000 t
b10 U
0:
b11 A
b11 S
b11 d
0@
0>
b1 V
1E
#100000
0E
#110000
b1011 (
b1011 m
b1011 z
b1011 6
b1011 J
b1011 N
b1011 h
b10000 +
b10000 v
b10000 |
b10 .
b10 H
b10 g
b1001 *
b1001 I
b1001 y
b10000 4
b10000 O
b10000 i
b10000 n
b10000 t
b1100 1
b1100 Z
b1100 _
b1100 b
b1001 2
b1001 X
b1001 k
b1001 w
b11 U
b10 A
b10 S
b10 d
1B
b10 V
1E
#120000
0E
#130000
b1011 +
b1011 v
b1011 |
b1011 -
b1011 `
b1011 p
b101001000000000000010110101101 &
b101001000000000000010110101101 [
b101001000000000000010110101101 ]
b101001000000000000010110101101 a
b1011 4
b1011 O
b1011 i
b1011 n
b1011 t
b100 U
1?
1>
b11 V
1E
#140000
0E
#150000
b1100 ,
b1100 #"
b101001000000000000010110101101 +
b101001000000000000010110101101 v
b101001000000000000010110101101 |
b1100 s
b101001000000000000010110101101 /
b101001000000000000010110101101 ^
b101001000000000000010110101101 u
0>
b0 U
1<
17
08
b100 V
1E
#160000
0E
#170000
b1100 (
b1100 m
b1100 z
b10101101010010010000000000000011 &
b10101101010010010000000000000011 [
b10101101010010010000000000000011 ]
b10101101010010010000000000000011 a
b1100 6
b1100 J
b1100 N
b1100 h
b1011 +
b1011 v
b1011 |
1)
b100 .
b100 H
b100 g
b1000 -
b1000 `
b1000 p
b1000 *
b1000 I
b1000 y
0<
07
b1 U
1:
b1 A
b1 S
b1 d
1@
0?
0B
1>
b0 V
1E
#180000
0E
#190000
b11000 (
b11000 m
b11000 z
b1001 ,
b1001 #"
b1001 s
b11000 6
b11000 J
b11000 N
b11000 h
b1100 +
b1100 v
b1100 |
b1100 -
b1100 `
b1100 p
b1100 *
b1100 I
b1100 y
b1100 "
b1100 e
b1100 '"
b11 K
b101001001000000000000001100 j
b101001001000000000000001100 #
b101001001000000000000001100 &"
b1010010010000000000000011 %"
b11 !
b11 f
b11 ("
b11 *"
b11 )"
b1001 $
b1001 Y
b1001 ~
b1001 ""
b1010 %
b1010 W
b1010 }
b1010 !"
b1001 q
b11 P
b101011 Q
0)
b1100 .
b1100 H
b1100 g
b1100 4
b1100 O
b1100 i
b1100 n
b1100 t
b10101101010010010000000000000011 /
b10101101010010010000000000000011 ^
b10101101010010010000000000000011 u
b10101101010010010000000000000011 0
b10101101010010010000000000000011 \
b1100 '
b1100 o
b1100 x
b1100 {
b10 U
0:
b11 A
b11 S
b11 d
0@
0>
b1 V
1E
#200000
0E
#210000
b1101 (
b1101 m
b1101 z
b1101 6
b1101 J
b1101 N
b1101 h
b11000 +
b11000 v
b11000 |
b11 .
b11 H
b11 g
b1010 *
b1010 I
b1010 y
b1010 2
b1010 X
b1010 k
b1010 w
b1001 1
b1001 Z
b1001 _
b1001 b
b11000 4
b11000 O
b11000 i
b11000 n
b11000 t
b101 U
b10 A
b10 S
b10 d
1B
b10 V
1E
#220000
0E
#230000
b1101 +
b1101 v
b1101 |
b1101 -
b1101 `
b1101 p
b1101 4
b1101 O
b1101 i
b1101 n
b1101 t
b0 U
1?
1=
b101 V
1E
#240000
0E
#250000
b10000 (
b10000 m
b10000 z
b10000 6
b10000 J
b10000 N
b10000 h
1)
b100 .
b100 H
b100 g
b1100 -
b1100 `
b1100 p
b1100 *
b1100 I
b1100 y
b10001001010010000000000000101 &
b10001001010010000000000000101 [
b10001001010010000000000000101 ]
b10001001010010000000000000101 a
0=
b1 U
1:
b1 A
b1 S
b1 d
1@
0?
0B
1>
b0 V
1E
#260000
0E
#270000
b100100 (
b100100 m
b100100 z
b100100 6
b100100 J
b100100 N
b100100 h
b10000 +
b10000 v
b10000 |
b10000 -
b10000 `
b10000 p
b10000 *
b10000 I
b10000 y
b10100 "
b10100 e
b10100 '"
b101 K
b100101001000000000000010100 j
b100101001000000000000010100 #
b100101001000000000000010100 &"
b1001010010000000000000101 %"
b101 !
b101 f
b101 ("
b101 *"
b101 )"
b1001 %
b1001 W
b1001 }
b1001 !"
b101 P
b100 Q
0)
b10100 .
b10100 H
b10100 g
b10000 4
b10000 O
b10000 i
b10000 n
b10000 t
b10001001010010000000000000101 /
b10001001010010000000000000101 ^
b10001001010010000000000000101 u
b10001001010010000000000000101 0
b10001001010010000000000000101 \
b10000 '
b10000 o
b10000 x
b10000 {
b1000 U
0:
b11 A
b11 S
b11 d
0@
0>
b1 V
1E
#280000
0E
#290000
1)
13
15
b0 6
b0 J
b0 N
b0 h
b100100 +
b100100 v
b100100 |
b100100 (
b100100 m
b100100 z
b110 D
b110 G
b110 M
b1001 .
b1001 H
b1001 g
b1001 *
b1001 I
b1001 y
b1001 2
b1001 X
b1001 k
b1001 w
b100100 4
b100100 O
b100100 i
b100100 n
b100100 t
b0 U
b1 ;
b1 T
b1 l
19
b1 C
b1 L
b1 R
b0 A
b0 S
b0 d
1B
b1000 V
1E
#300000
0E
#310000
05
b101000 6
b101000 J
b101000 N
b101000 h
b0 +
b0 v
b0 |
b100100 -
b100100 `
b100100 p
03
b101000 (
b101000 m
b101000 z
b100 D
b100 G
b100 M
b100 .
b100 H
b100 g
b100100 *
b100100 I
b100100 y
b10001101001011000000000000000010 &
b10001101001011000000000000000010 [
b10001101001011000000000000000010 ]
b10001101001011000000000000000010 a
b0 4
b0 O
b0 i
b0 n
b0 t
b100100 '
b100100 o
b100100 x
b100100 {
09
b1 U
b0 ;
b0 T
b0 l
1:
b0 C
b0 L
b0 R
b1 A
b1 S
b1 d
1@
0B
1>
b0 V
1E
#320000
0E
#330000
b110000 (
b110000 m
b110000 z
b1100 ,
b1100 #"
b1100 s
b110000 6
b110000 J
b110000 N
b110000 h
b101000 *
b101000 I
b101000 y
b101000 -
b101000 `
b101000 p
b101000 +
b101000 v
b101000 |
b1000 "
b1000 e
b1000 '"
b10 K
b100101100000000000000001000 j
b100101100000000000000001000 #
b100101100000000000000001000 &"
b1001011000000000000000010 %"
b10 !
b10 f
b10 ("
b10 *"
b10 )"
b1100 $
b1100 Y
b1100 ~
b1100 ""
b1100 q
b10 P
b100011 Q
0)
b1000 .
b1000 H
b1000 g
b101000 '
b101000 o
b101000 x
b101000 {
b10001101001011000000000000000010 0
b10001101001011000000000000000010 \
b10001101001011000000000000000010 /
b10001101001011000000000000000010 ^
b10001101001011000000000000000010 u
b101000 4
b101000 O
b101000 i
b101000 n
b101000 t
b10 U
0:
b11 A
b11 S
b11 d
0@
0>
b1 V
1E
#340000
0E
#350000
b1011 (
b1011 m
b1011 z
b1011 6
b1011 J
b1011 N
b1011 h
b110000 +
b110000 v
b110000 |
b10 .
b10 H
b10 g
b1001 *
b1001 I
b1001 y
b110000 4
b110000 O
b110000 i
b110000 n
b110000 t
b1100 1
b1100 Z
b1100 _
b1100 b
b11 U
b10 A
b10 S
b10 d
1B
b10 V
1E
#360000
0E
#370000
b1011 +
b1011 v
b1011 |
b1011 -
b1011 `
b1011 p
b101001000000000000010110101101 &
b101001000000000000010110101101 [
b101001000000000000010110101101 ]
b101001000000000000010110101101 a
b1011 4
b1011 O
b1011 i
b1011 n
b1011 t
b100 U
1?
1>
b11 V
1E
#380000
0E
#390000
b101001000000000000010110101101 +
b101001000000000000010110101101 v
b101001000000000000010110101101 |
b101001000000000000010110101101 /
b101001000000000000010110101101 ^
b101001000000000000010110101101 u
0>
b0 U
1<
17
b100 V
1E
#400000
0E
#410000
b101100 (
b101100 m
b101100 z
b10101101010010010000000000000011 &
b10101101010010010000000000000011 [
b10101101010010010000000000000011 ]
b10101101010010010000000000000011 a
b101100 6
b101100 J
b101100 N
b101100 h
b1011 +
b1011 v
b1011 |
1)
b100 .
b100 H
b100 g
b101000 -
b101000 `
b101000 p
b101000 *
b101000 I
b101000 y
0<
07
b1 U
1:
b1 A
b1 S
b1 d
1@
0?
0B
1>
b0 V
1E
#420000
0E
#430000
b111000 (
b111000 m
b111000 z
b1001 ,
b1001 #"
b1001 s
b111000 6
b111000 J
b111000 N
b111000 h
b101100 +
b101100 v
b101100 |
b101100 -
b101100 `
b101100 p
b101100 *
b101100 I
b101100 y
b1100 "
b1100 e
b1100 '"
b11 K
b101001001000000000000001100 j
b101001001000000000000001100 #
b101001001000000000000001100 &"
b1010010010000000000000011 %"
b11 !
b11 f
b11 ("
b11 *"
b11 )"
b1001 $
b1001 Y
b1001 ~
b1001 ""
b1010 %
b1010 W
b1010 }
b1010 !"
b1001 q
b11 P
b101011 Q
0)
b1100 .
b1100 H
b1100 g
b101100 4
b101100 O
b101100 i
b101100 n
b101100 t
b10101101010010010000000000000011 /
b10101101010010010000000000000011 ^
b10101101010010010000000000000011 u
b10101101010010010000000000000011 0
b10101101010010010000000000000011 \
b101100 '
b101100 o
b101100 x
b101100 {
b10 U
0:
b11 A
b11 S
b11 d
0@
0>
b1 V
1E
#440000
0E
#450000
b1101 (
b1101 m
b1101 z
b1101 6
b1101 J
b1101 N
b1101 h
b111000 +
b111000 v
b111000 |
b11 .
b11 H
b11 g
b1010 *
b1010 I
b1010 y
b1010 2
b1010 X
b1010 k
b1010 w
b1001 1
b1001 Z
b1001 _
b1001 b
b111000 4
b111000 O
b111000 i
b111000 n
b111000 t
b101 U
b10 A
b10 S
b10 d
1B
b10 V
1E
#460000
0E
#470000
b1101 +
b1101 v
b1101 |
b1101 -
b1101 `
b1101 p
b1101 4
b1101 O
b1101 i
b1101 n
b1101 t
b0 U
1?
1=
b101 V
1E
#480000
0E
#490000
b110000 (
b110000 m
b110000 z
b110000 6
b110000 J
b110000 N
b110000 h
1)
b100 .
b100 H
b100 g
b101100 -
b101100 `
b101100 p
b101100 *
b101100 I
b101100 y
b1011010100100100000100010 &
b1011010100100100000100010 [
b1011010100100100000100010 ]
b1011010100100100000100010 a
0=
b1 U
1:
b1 A
b1 S
b1 d
1@
0?
0B
1>
b0 V
1E
#500000
0E
#510000
b10010000010111000 (
b10010000010111000 m
b10010000010111000 z
b1010 ,
b1010 #"
b1010 s
b10010000010111000 6
b10010000010111000 J
b10010000010111000 N
b10010000010111000 h
b110000 +
b110000 v
b110000 |
b110000 -
b110000 `
b110000 p
b110000 *
b110000 I
b110000 y
b10010000010001000 "
b10010000010001000 e
b10010000010001000 '"
b100010 K
b101101010010010000010001000 j
b101101010010010000010001000 #
b101101010010010000010001000 &"
b1011010100100100000100010 %"
b100100000100010 !
b100100000100010 f
b100100000100010 ("
b100100000100010 *"
b100100000100010 )"
b1010 $
b1010 Y
b1010 ~
b1010 ""
b1011 %
b1011 W
b1011 }
b1011 !"
b1001 r
b1010 q
b100010 P
b0 Q
0)
b10010000010001000 .
b10010000010001000 H
b10010000010001000 g
b110000 4
b110000 O
b110000 i
b110000 n
b110000 t
b1011010100100100000100010 /
b1011010100100100000100010 ^
b1011010100100100000100010 u
b1011010100100100000100010 0
b1011010100100100000100010 \
b110000 '
b110000 o
b110000 x
b110000 {
b110 U
0:
b11 A
b11 S
b11 d
0@
0>
b1 V
1E
#520000
0E
#530000
b1 (
b1 m
b1 z
b1 6
b1 J
b1 N
b1 h
b10010000010111000 +
b10010000010111000 v
b10010000010111000 |
b110 D
b110 G
b110 M
b1010 .
b1010 H
b1010 g
b1011 *
b1011 I
b1011 y
b1011 2
b1011 X
b1011 k
b1011 w
b1010 1
b1010 Z
b1010 _
b1010 b
b10010000010111000 4
b10010000010111000 O
b10010000010111000 i
b10010000010111000 n
b10010000010111000 t
b111 U
b10 C
b10 L
b10 R
b0 A
b0 S
b0 d
1B
b110 V
1E
#540000
0E
#550000
b1 +
b1 v
b1 |
b1001 ,
b1001 #"
b1001 s
b1 4
b1 O
b1 i
b1 n
b1 t
b0 U
17
18
b111 V
1E
#560000
0E
#570000
b110100 (
b110100 m
b110100 z
b110100 6
b110100 J
b110100 N
b110100 h
1)
b100 D
b100 G
b100 M
b100 .
b100 H
b100 g
b110000 *
b110000 I
b110000 y
b1010010110100100000100001 &
b1010010110100100000100001 [
b1010010110100100000100001 ]
b1010010110100100000100001 a
07
b1 U
1:
b0 C
b0 L
b0 R
b1 A
b1 S
b1 d
1@
0B
1>
b0 V
1E
#580000
0E
#590000
b10010000010111000 (
b10010000010111000 m
b10010000010111000 z
b10010000010111000 6
b10010000010111000 J
b10010000010111000 N
b10010000010111000 h
b110100 +
b110100 v
b110100 |
b110100 -
b110100 `
b110100 p
b110100 *
b110100 I
b110100 y
b10010000010000100 "
b10010000010000100 e
b10010000010000100 '"
b100001 K
b101001011010010000010000100 j
b101001011010010000010000100 #
b101001011010010000010000100 &"
b1010010110100100000100001 %"
b100100000100001 !
b100100000100001 f
b100100000100001 ("
b100100000100001 *"
b100100000100001 )"
b1011 $
b1011 Y
b1011 ~
b1011 ""
b1010 %
b1010 W
b1010 }
b1010 !"
b1011 q
b100001 P
0)
b10010000010000100 .
b10010000010000100 H
b10010000010000100 g
b110100 4
b110100 O
b110100 i
b110100 n
b110100 t
b1010010110100100000100001 /
b1010010110100100000100001 ^
b1010010110100100000100001 u
b1010010110100100000100001 0
b1010010110100100000100001 \
b110100 '
b110100 o
b110100 x
b110100 {
b110 U
0:
b11 A
b11 S
b11 d
0@
0>
b1 V
1E
#600000
0E
#610000
b10101 (
b10101 m
b10101 z
b10101 6
b10101 J
b10101 N
b10101 h
b10010000010111000 +
b10010000010111000 v
b10010000010111000 |
b101 D
b101 G
b101 M
b1011 .
b1011 H
b1011 g
b1010 *
b1010 I
b1010 y
b1010 2
b1010 X
b1010 k
b1010 w
b1011 1
b1011 Z
b1011 _
b1011 b
b10010000010111000 4
b10010000010111000 O
b10010000010111000 i
b10010000010111000 n
b10010000010111000 t
b111 U
b10 C
b10 L
b10 R
b0 A
b0 S
b0 d
1B
b110 V
1E
#620000
0E
#630000
b10101 +
b10101 v
b10101 |
b10101 4
b10101 O
b10101 i
b10101 n
b10101 t
b0 U
17
b111 V
1E
#640000
0E
#650000
b111000 (
b111000 m
b111000 z
b111000 6
b111000 J
b111000 N
b111000 h
1)
b100 D
b100 G
b100 M
b100 .
b100 H
b100 g
b110100 *
b110100 I
b110100 y
b1010010110110000000100100 &
b1010010110110000000100100 [
b1010010110110000000100100 ]
b1010010110110000000100100 a
07
b1 U
1:
b0 C
b0 L
b0 R
b1 A
b1 S
b1 d
1@
0B
1>
b0 V
1E
#660000
0E
#670000
b11000000011001000 (
b11000000011001000 m
b11000000011001000 z
b1100 ,
b1100 #"
b1100 s
b11000000011001000 6
b11000000011001000 J
b11000000011001000 N
b11000000011001000 h
b111000 +
b111000 v
b111000 |
b111000 -
b111000 `
b111000 p
b111000 *
b111000 I
b111000 y
b11000000010010000 "
b11000000010010000 e
b11000000010010000 '"
b100100 K
b101001011011000000010010000 j
b101001011011000000010010000 #
b101001011011000000010010000 &"
b1010010110110000000100100 %"
b110000000100100 !
b110000000100100 f
b110000000100100 ("
b110000000100100 *"
b110000000100100 )"
b1100 r
b100100 P
0)
b11000000010010000 .
b11000000010010000 H
b11000000010010000 g
b111000 4
b111000 O
b111000 i
b111000 n
b111000 t
b1010010110110000000100100 /
b1010010110110000000100100 ^
b1010010110110000000100100 u
b1010010110110000000100100 0
b1010010110110000000100100 \
b111000 '
b111000 o
b111000 x
b111000 {
b110 U
0:
b11 A
b11 S
b11 d
0@
0>
b1 V
1E
#680000
0E
#690000
b1010 (
b1010 m
b1010 z
b1010 6
b1010 J
b1010 N
b1010 h
b11000000011001000 +
b11000000011001000 v
b11000000011001000 |
b0 D
b0 G
b0 M
b1011 .
b1011 H
b1011 g
b1010 *
b1010 I
b1010 y
b11000000011001000 4
b11000000011001000 O
b11000000011001000 i
b11000000011001000 n
b11000000011001000 t
b111 U
b10 C
b10 L
b10 R
b0 A
b0 S
b0 d
1B
b110 V
1E
#700000
0E
#710000
b1010 +
b1010 v
b1010 |
b1010 4
b1010 O
b1010 i
b1010 n
b1010 t
b0 U
17
b111 V
1E
#720000
0E
#730000
b111100 (
b111100 m
b111100 z
b111100 6
b111100 J
b111100 N
b111100 h
1)
b100 D
b100 G
b100 M
b100 .
b100 H
b100 g
b111000 *
b111000 I
b111000 y
b1010010110110000000100101 &
b1010010110110000000100101 [
b1010010110110000000100101 ]
b1010010110110000000100101 a
07
b1 U
1:
b0 C
b0 L
b0 R
b1 A
b1 S
b1 d
1@
0B
1>
b0 V
1E
#740000
0E
#750000
b11000000011010000 (
b11000000011010000 m
b11000000011010000 z
b11000000011010000 6
b11000000011010000 J
b11000000011010000 N
b11000000011010000 h
b111100 +
b111100 v
b111100 |
b111100 -
b111100 `
b111100 p
b111100 *
b111100 I
b111100 y
b11000000010010100 "
b11000000010010100 e
b11000000010010100 '"
b100101 K
b101001011011000000010010100 j
b101001011011000000010010100 #
b101001011011000000010010100 &"
b1010010110110000000100101 %"
b110000000100101 !
b110000000100101 f
b110000000100101 ("
b110000000100101 *"
b110000000100101 )"
b100101 P
0)
b11000000010010100 .
b11000000010010100 H
b11000000010010100 g
b111100 4
b111100 O
b111100 i
b111100 n
b111100 t
b1010010110110000000100101 /
b1010010110110000000100101 ^
b1010010110110000000100101 u
b1010010110110000000100101 0
b1010010110110000000100101 \
b111100 '
b111100 o
b111100 x
b111100 {
b110 U
0:
b11 A
b11 S
b11 d
0@
0>
b1 V
1E
#760000
0E
#770000
b1011 (
b1011 m
b1011 z
b1011 6
b1011 J
b1011 N
b1011 h
b11000000011010000 +
b11000000011010000 v
b11000000011010000 |
b1 D
b1 G
b1 M
b1011 .
b1011 H
b1011 g
b1010 *
b1010 I
b1010 y
b11000000011010000 4
b11000000011010000 O
b11000000011010000 i
b11000000011010000 n
b11000000011010000 t
b111 U
b10 C
b10 L
b10 R
b0 A
b0 S
b0 d
1B
b110 V
1E
#780000
0E
#790000
b1011 +
b1011 v
b1011 |
b1011 4
b1011 O
b1011 i
b1011 n
b1011 t
b0 U
17
b111 V
1E
#800000
0E
#810000
b1000000 (
b1000000 m
b1000000 z
b1000000 6
b1000000 J
b1000000 N
b1000000 h
1)
b100 D
b100 G
b100 M
b100 .
b100 H
b100 g
b111100 *
b111100 I
b111100 y
b1010010110110000000101010 &
b1010010110110000000101010 [
b1010010110110000000101010 ]
b1010010110110000000101010 a
07
b1 U
1:
b0 C
b0 L
b0 R
b1 A
b1 S
b1 d
1@
0B
1>
b0 V
1E
#820000
0E
#830000
b11000000011101000 (
b11000000011101000 m
b11000000011101000 z
b11000000011101000 6
b11000000011101000 J
b11000000011101000 N
b11000000011101000 h
b1000000 +
b1000000 v
b1000000 |
b1000000 -
b1000000 `
b1000000 p
b1000000 *
b1000000 I
b1000000 y
b11000000010101000 "
b11000000010101000 e
b11000000010101000 '"
b101010 K
b101001011011000000010101000 j
b101001011011000000010101000 #
b101001011011000000010101000 &"
b1010010110110000000101010 %"
b110000000101010 !
b110000000101010 f
b110000000101010 ("
b110000000101010 *"
b110000000101010 )"
b101010 P
0)
b11000000010101000 .
b11000000010101000 H
b11000000010101000 g
b1000000 4
b1000000 O
b1000000 i
b1000000 n
b1000000 t
b1010010110110000000101010 /
b1010010110110000000101010 ^
b1010010110110000000101010 u
b1010010110110000000101010 0
b1010010110110000000101010 \
b1000000 '
b1000000 o
b1000000 x
b1000000 {
b110 U
0:
b11 A
b11 S
b11 d
0@
0>
b1 V
1E
#840000
0E
