cpu_multicycle.vcd
$date
	Thu Dec 26 20:21:50 2019
$end
$version
	Icarus Verilog
$end
$timescale
	1ps
$end
$scope module cpu_multicycle $end
$var wire 32 ! sigext16_32_out [31:0] $end
$var wire 32 " shl2_2_out [31:0] $end
$var wire 28 # shl2_1_out [27:0] $end
$var wire 32 $ r_data_2 [31:0] $end
$var wire 32 % r_data_1 [31:0] $end
$var wire 32 & r_data [31:0] $end
$var wire 32 ' pc_out [31:0] $end
$var wire 32 ( pc_in [31:0] $end
$var wire 1 ) or_out $end
$var wire 32 * mux_4_out [31:0] $end
$var wire 32 + mux_3_out [31:0] $end
$var wire 5 , mux_2_out [4:0] $end
$var wire 32 - mux_1_out [31:0] $end
$var wire 32 . mux4_1_out [31:0] $end
$var wire 32 / mdr_out [31:0] $end
$var wire 32 0 inst [31:0] $end
$var wire 32 1 d_ff_B_out [31:0] $end
$var wire 32 2 d_ff_A_out [31:0] $end
$var wire 1 3 and_out $end
$var wire 32 4 aluout_out [31:0] $end
$var wire 1 5 alu_zero $end
$var wire 32 6 alu_out [31:0] $end
$var wire 1 7 RegWr $end
$var wire 1 8 RegDst $end
$var wire 1 9 PCWrCond $end
$var wire 1 : PCWr $end
$var wire 2 ; PCSrc [1:0] $end
$var wire 1 < MemtoReg $end
$var wire 1 = MemWr $end
$var wire 1 > MemRd $end
$var wire 1 ? IorD $end
$var wire 1 @ IRWr $end
$var wire 2 A ALUSrcB [1:0] $end
$var wire 1 B ALUSrcA $end
$var wire 2 C ALUOp [1:0] $end
$var wire 3 D ALUCtrl [2:0] $end
$var reg 1 E clk $end
$var reg 32 F pc4 [31:0] $end
$scope module alu $end
$var wire 3 G M [2:0] $end
$var wire 32 H B [31:0] $end
$var wire 32 I A [31:0] $end
$var reg 32 J C [31:0] $end
$var reg 1 5 Z $end
$upscope $end
$scope module alucu $end
$var wire 6 K Funct [5:0] $end
$var wire 2 L ALUOp [1:0] $end
$var reg 3 M ALUCtrl [2:0] $end
$upscope $end
$scope module aluout $end
$var wire 32 N D [31:0] $end
$var wire 1 E clk $end
$var reg 32 O Q [31:0] $end
$upscope $end
$scope module and1 $end
$var wire 1 5 B $end
$var wire 1 9 A $end
$var reg 1 3 C $end
$upscope $end
$scope module controller $end
$var wire 6 P Func [5:0] $end
$var wire 6 Q Op [5:0] $end
$var wire 1 E clk $end
$var reg 2 R ALUOp [1:0] $end
$var reg 1 B ALUSrcA $end
$var reg 2 S ALUSrcB [1:0] $end
$var reg 1 @ IRWr $end
$var reg 1 ? IorD $end
$var reg 1 > MemRd $end
$var reg 1 = MemWr $end
$var reg 1 < MemtoReg $end
$var reg 2 T PCSrc [1:0] $end
$var reg 1 : PCWr $end
$var reg 1 9 PCWrCond $end
$var reg 1 8 RegDst $end
$var reg 1 7 RegWr $end
$var reg 5 U nextstate [4:0] $end
$var reg 5 V state [4:0] $end
$upscope $end
$scope module d_ff_A $end
$var wire 1 E clk $end
$var wire 32 W D [31:0] $end
$var reg 32 X Q [31:0] $end
$upscope $end
$scope module d_ff_B $end
$var wire 1 E clk $end
$var wire 32 Y D [31:0] $end
$var reg 32 Z Q [31:0] $end
$upscope $end
$scope module ir $end
$var wire 1 @ Wr $end
$var wire 1 E clk $end
$var wire 32 [ D [31:0] $end
$var reg 32 \ inst [31:0] $end
$upscope $end
$scope module mdr $end
$var wire 1 E clk $end
$var wire 32 ] D [31:0] $end
$var reg 32 ^ Q [31:0] $end
$upscope $end
$scope module memory $end
$var wire 1 > MemRd $end
$var wire 1 = MemWr $end
$var wire 32 _ W_data [31:0] $end
$var wire 32 ` addr [31:0] $end
$var reg 32 a R_data [31:0] $end
$upscope $end
$scope module mux4_1 $end
$var wire 32 b A [31:0] $end
$var wire 32 c B [31:0] $end
$var wire 2 d sel [1:0] $end
$var wire 32 e D [31:0] $end
$var wire 32 f C [31:0] $end
$var reg 32 g out [31:0] $end
$upscope $end
$scope module mux4_2 $end
$var wire 32 h A [31:0] $end
$var wire 32 i B [31:0] $end
$var wire 32 j C [31:0] $end
$var wire 32 k D [31:0] $end
$var wire 2 l sel [1:0] $end
$var reg 32 m out [31:0] $end
$upscope $end
$scope module mux_1 $end
$var wire 32 n B [31:0] $end
$var wire 1 ? sel $end
$var wire 32 o A [31:0] $end
$var reg 32 p out [31:0] $end
$upscope $end
$scope module mux_2 $end
$var wire 32 q A [31:0] $end
$var wire 32 r B [31:0] $end
$var wire 1 8 sel $end
$var reg 32 s out [31:0] $end
$upscope $end
$scope module mux_3 $end
$var wire 32 t A [31:0] $end
$var wire 32 u B [31:0] $end
$var wire 1 < sel $end
$var reg 32 v out [31:0] $end
$upscope $end
$scope module mux_4 $end
$var wire 32 w B [31:0] $end
$var wire 1 B sel $end
$var wire 32 x A [31:0] $end
$var reg 32 y out [31:0] $end
$upscope $end
$scope module or1 $end
$var wire 1 3 A $end
$var wire 1 : B $end
$var reg 1 ) C $end
$upscope $end
$scope module pc $end
$var wire 32 z D [31:0] $end
$var wire 1 ) Wr $end
$var wire 1 E clk $end
$var reg 32 { Q [31:0] $end
$upscope $end
$scope module regfile $end
$var wire 1 E clk $end
$var wire 32 | data_in [31:0] $end
$var wire 32 } data_out_1 [31:0] $end
$var wire 32 ~ data_out_2 [31:0] $end
$var wire 5 !" r_addr_1 [4:0] $end
$var wire 5 "" r_addr_2 [4:0] $end
$var wire 5 #" w_addr [4:0] $end
$var wire 1 7 we $end
$var integer 32 $" i [31:0] $end
$upscope $end
$scope module shl2_1 $end
$var wire 26 %" A [25:0] $end
$var wire 28 &" B [27:0] $end
$upscope $end
$scope module shl2_2 $end
$var wire 32 '" B [31:0] $end
$var wire 32 (" A [31:0] $end
$upscope $end
$scope module sigext16_32 $end
$var wire 16 )" A [15:0] $end
$var wire 32 *" B [31:0] $end
$upscope $end
$upscope $end
$enddefinitions $end
#0
$dumpvars
b0xxxxxxxxxxxxxxxx *"
bx )"
b0xxxxxxxxxxxxxxxx ("
b0xxxxxxxxxxxxxxxx00 '"
bx00 &"
bx %"
b100000 $"
bx #"
bx ""
bx !"
bx ~
bx }
bx |
b0 {
b100 z
b0 y
b0 x
bx w
bx v
bx u
bx t
bx s
b0xxxxx r
b0xxxxx q
b0 p
b0 o
bx n
b100 m
b0 l
bx k
b0xxxxxxxxxxxxxxxxxxxxxxxxxx00 j
bx i
b100 h
b100 g
b0xxxxxxxxxxxxxxxx f
b0xxxxxxxxxxxxxxxx00 e
b1 d
b100 c
bx b
b110001010010010000000000000011 a
b0 `
bx _
bx ^
b110001010010010000000000000011 ]
bx \
b110001010010010000000000000011 [
bx Z
bx Y
bx X
bx W
b0 V
b1 U
b0 T
b1 S
b0 R
bx Q
bx P
bx O
b100 N
b100 M
b0 L
bx K
b100 J
b0 I
b100 H
b100 G
b100 F
0E
b100 D
b0 C
0B
b1 A
1@
0?
1>
0=
0<
b0 ;
1:
09
x8
07
b100 6
05
bx 4
03
bx 2
bx 1
bx 0
bx /
b100 .
b0 -
bx ,
bx +
b0 *
1)
b100 (
b0 '
b110001010010010000000000000011 &
bx %
bx $
bx00 #
b0xxxxxxxxxxxxxxxx00 "
b0xxxxxxxxxxxxxxxx !
$end
#10000
05
b10000 (
b10000 m
b10000 z
b10000 6
b10000 J
b10000 N
b10000 h
b100 *
b100 I
b100 y
b100 -
b100 `
b100 p
b100 +
b100 v
b100 |
b1100 "
b1100 e
b1100 '"
b1010 U
b11 K
b101001001000000000000001100 j
b101001001000000000000001100 #
b101001001000000000000001100 &"
b1010010010000000000000011 %"
b11 !
b11 f
b11 ("
b11 *"
b11 )"
b1001 $
b1001 Y
b1001 ~
b1001 ""
b1010 %
b1010 W
b1010 }
b1010 !"
b0 r
b1001 q
b11 P
b1100 Q
0)
b1100 .
b1100 H
b1100 g
b100 '
b100 o
b100 x
b100 {
b110001010010010000000000000011 0
b110001010010010000000000000011 \
b110001010010010000000000000011 /
b110001010010010000000000000011 ^
b110001010010010000000000000011 u
b100 4
b100 O
b100 i
b100 n
b100 t
0:
b11 A
b11 S
b11 d
0@
0>
b1 V
1E
#20000
0E
#30000
05
b10 (
b10 m
b10 z
b10 6
b10 J
b10 N
b10 h
b10000 +
b10000 v
b10000 |
b0 D
b0 G
b0 M
b11 .
b11 H
b11 g
b1010 *
b1010 I
b1010 y
b10000 4
b10000 O
b10000 i
b10000 n
b10000 t
b1001 1
b1001 Z
b1001 _
b1001 b
b1010 2
b1010 X
b1010 k
b1010 w
b1011 U
b11 C
b11 L
b11 R
b10 A
b10 S
b10 d
1B
b1010 V
1E
#40000
0E
#50000
b10 +
b10 v
b10 |
b1001 ,
b1001 #"
b1001 s
b10 4
b10 O
b10 i
b10 n
b10 t
b0 U
17
08
b1011 V
1E
#60000
0E
#70000
b1000 (
b1000 m
b1000 z
b1000 6
b1000 J
b1000 N
b1000 h
1)
b100 D
b100 G
b100 M
b100 .
b100 H
b100 g
b100 *
b100 I
b100 y
b10010100100100000000100 &
b10010100100100000000100 [
b10010100100100000000100 ]
b10010100100100000000100 a
07
b1 U
1:
b0 C
b0 L
b0 R
b1 A
b1 S
b1 d
1@
0B
1>
b0 V
1E
#80000
0E
#90000
b10010000000011000 (
b10010000000011000 m
b10010000000011000 z
b1010 ,
b1010 #"
b1010 s
b10010000000011000 6
b10010000000011000 J
b10010000000011000 N
b10010000000011000 h
b1000 *
b1000 I
b1000 y
b1000 -
b1000 `
b1000 p
b1000 +
b1000 v
b1000 |
b10010000000010000 "
b10010000000010000 e
b10010000000010000 '"
b100 K
b1001010010010000000010000 j
b1001010010010000000010000 #
b1001010010010000000010000 &"
b10010100100100000000100 %"
b100100000000100 !
b100100000000100 f
b100100000000100 ("
b100100000000100 *"
b100100000000100 )"
b1010 $
b1010 Y
b1010 ~
b1010 ""
b10 %
b10 W
b10 }
b10 !"
b1001 r
b1010 q
b100 P
b0 Q
0)
b10010000000010000 .
b10010000000010000 H
b10010000000010000 g
b1000 '
b1000 o
b1000 x
b1000 {
b10010100100100000000100 0
b10010100100100000000100 \
b10010100100100000000100 /
b10010100100100000000100 ^
b10010100100100000000100 u
b1000 4
b1000 O
b1000 i
b1000 n
b1000 t
b110 U
0:
b11 A
b11 S
b11 d
0@
0>
b1 V
1E
#100000
0E
#110000
b101000 (
b101000 m
b101000 z
b101000 6
b101000 J
b101000 N
b101000 h
b10010000000011000 +
b10010000000011000 v
b10010000000011000 |
b10 D
b10 G
b10 M
b1010 .
b1010 H
b1010 g
b10 *
b10 I
b10 y
b10010000000011000 4
b10010000000011000 O
b10010000000011000 i
b10010000000011000 n
b10010000000011000 t
b1010 1
b1010 Z
b1010 _
b1010 b
b10 2
b10 X
b10 k
b10 w
b111 U
b10 C
b10 L
b10 R
b0 A
b0 S
b0 d
1B
b110 V
1E
#120000
0E
#130000
b101000 +
b101000 v
b101000 |
b1001 ,
b1001 #"
b1001 s
b101000 4
b101000 O
b101000 i
b101000 n
b101000 t
b0 U
17
18
b111 V
1E
#140000
0E
#150000
b1100 (
b1100 m
b1100 z
b1100 6
b1100 J
b1100 N
b1100 h
1)
b100 D
b100 G
b100 M
b100 .
b100 H
b100 g
b1000 *
b1000 I
b1000 y
b10010110101000000000110 &
b10010110101000000000110 [
b10010110101000000000110 ]
b10010110101000000000110 a
07
b1 U
1:
b0 C
b0 L
b0 R
b1 A
b1 S
b1 d
1@
0B
1>
b0 V
1E
#160000
0E
#170000
b10100000000100100 (
b10100000000100100 m
b10100000000100100 z
b1010 ,
b1010 #"
b1010 s
b10100000000100100 6
b10100000000100100 J
b10100000000100100 N
b10100000000100100 h
b1100 *
b1100 I
b1100 y
b1100 -
b1100 `
b1100 p
b1100 +
b1100 v
b1100 |
b10100000000011000 "
b10100000000011000 e
b10100000000011000 '"
b110 K
b1001011010100000000011000 j
b1001011010100000000011000 #
b1001011010100000000011000 &"
b10010110101000000000110 %"
b101000000000110 !
b101000000000110 f
b101000000000110 ("
b101000000000110 *"
b101000000000110 )"
b1011 $
b1011 Y
b1011 ~
b1011 ""
b1010 r
b1011 q
b110 P
0)
b10100000000011000 .
b10100000000011000 H
b10100000000011000 g
b1100 '
b1100 o
b1100 x
b1100 {
b10010110101000000000110 0
b10010110101000000000110 \
b10010110101000000000110 /
b10010110101000000000110 ^
b10010110101000000000110 u
b1100 4
b1100 O
b1100 i
b1100 n
b1100 t
b110 U
0:
b11 A
b11 S
b11 d
0@
0>
b1 V
1E
#180000
0E
#190000
b10 (
b10 m
b10 z
b10 6
b10 J
b10 N
b10 h
b10100000000100100 +
b10100000000100100 v
b10100000000100100 |
b111 D
b111 G
b111 M
b1011 .
b1011 H
b1011 g
b10 *
b10 I
b10 y
b10100000000100100 4
b10100000000100100 O
b10100000000100100 i
b10100000000100100 n
b10100000000100100 t
b1011 1
b1011 Z
b1011 _
b1011 b
b111 U
b10 C
b10 L
b10 R
b0 A
b0 S
b0 d
1B
b110 V
1E
#200000
0E
#210000
b10 +
b10 v
b10 |
b10 4
b10 O
b10 i
b10 n
b10 t
b0 U
17
b111 V
1E
#220000
0E
#230000
b10000 (
b10000 m
b10000 z
b10000 6
b10000 J
b10000 N
b10000 h
1)
b100 D
b100 G
b100 M
b100 .
b100 H
b100 g
b1100 *
b1100 I
b1100 y
b100001101011000000000000000010 &
b100001101011000000000000000010 [
b100001101011000000000000000010 ]
b100001101011000000000000000010 a
07
b1 U
1:
b0 C
b0 L
b0 R
b1 A
b1 S
b1 d
1@
0B
1>
b0 V
1E
#240000
0E
#250000
b11000 (
b11000 m
b11000 z
b0 ,
b0 #"
b0 s
b11000 6
b11000 J
b11000 N
b11000 h
b10000 *
b10000 I
b10000 y
b10000 -
b10000 `
b10000 p
b10000 +
b10000 v
b10000 |
b1000 "
b1000 e
b1000 '"
b10 K
b110101100000000000000001000 j
b110101100000000000000001000 #
b110101100000000000000001000 &"
b1101011000000000000000010 %"
b10 !
b10 f
b10 ("
b10 *"
b10 )"
b1100 $
b1100 Y
b1100 ~
b1100 ""
b1101 %
b1101 W
b1101 }
b1101 !"
b0 r
b1100 q
b10 P
b1000 Q
0)
b1000 .
b1000 H
b1000 g
b10000 '
b10000 o
b10000 x
b10000 {
b100001101011000000000000000010 0
b100001101011000000000000000010 \
b100001101011000000000000000010 /
b100001101011000000000000000010 ^
b100001101011000000000000000010 u
b10000 4
b10000 O
b10000 i
b10000 n
b10000 t
b1100 U
0:
b11 A
b11 S
b11 d
0@
0>
b1 V
1E
#260000
0E
#270000
b1111 (
b1111 m
b1111 z
b1111 6
b1111 J
b1111 N
b1111 h
b11000 +
b11000 v
b11000 |
b10 .
b10 H
b10 g
b1101 *
b1101 I
b1101 y
b11000 4
b11000 O
b11000 i
b11000 n
b11000 t
b1100 1
b1100 Z
b1100 _
b1100 b
b1101 2
b1101 X
b1101 k
b1101 w
b1011 U
b10 A
b10 S
b10 d
1B
b1100 V
1E
#280000
0E
#290000
b1111 +
b1111 v
b1111 |
b1100 ,
b1100 #"
b1100 s
b1111 4
b1111 O
b1111 i
b1111 n
b1111 t
b0 U
17
08
b1011 V
1E
#300000
0E
#310000
b10100 (
b10100 m
b10100 z
b10100 6
b10100 J
b10100 N
b10100 h
1)
b100 .
b100 H
b100 g
b10000 *
b10000 I
b10000 y
b0 &
b0 [
b0 ]
b0 a
07
b1 U
1:
b1 A
b1 S
b1 d
1@
0B
1>
b0 V
1E
#320000
0E
#330000
b10100 (
b10100 m
b10100 z
b0 ,
b0 #"
b0 s
b10100 6
b10100 J
b10100 N
b10100 h
b10100 *
b10100 I
b10100 y
b10100 -
b10100 `
b10100 p
b10100 +
b10100 v
b10100 |
b0 "
b0 e
b0 '"
b0 K
b0 j
b0 #
b0 &"
b0 %"
b0 !
b0 f
b0 ("
b0 *"
b0 )"
b0 $
b0 Y
b0 ~
b0 ""
b0 %
b0 W
b0 }
b0 !"
b0 q
b0 P
b0 Q
0)
b0 .
b0 H
b0 g
b10100 '
b10100 o
b10100 x
b10100 {
b0 0
b0 \
b0 /
b0 ^
b0 u
b10100 4
b10100 O
b10100 i
b10100 n
b10100 t
b0 U
0:
b11 A
b11 S
b11 d
0@
0>
b1 V
1E
#340000
0E
#350000
b11000 (
b11000 m
b11000 z
b11000 6
b11000 J
b11000 N
b11000 h
1)
b100 .
b100 H
b100 g
b1000000000000000000001000 &
b1000000000000000000001000 [
b1000000000000000000001000 ]
b1000000000000000000001000 a
b0 1
b0 Z
b0 _
b0 b
b0 2
b0 X
b0 k
b0 w
b1 U
1:
b1 A
b1 S
b1 d
1@
1>
b0 V
1E
#360000
0E
#370000
b111000 (
b111000 m
b111000 z
b111000 6
b111000 J
b111000 N
b111000 h
b11000 *
b11000 I
b11000 y
b11000 -
b11000 `
b11000 p
b11000 +
b11000 v
b11000 |
b100000 "
b100000 e
b100000 '"
b1000 K
b100000000000000000000100000 j
b100000000000000000000100000 #
b100000000000000000000100000 &"
b1000000000000000000001000 %"
b1000 !
b1000 f
b1000 ("
b1000 *"
b1000 )"
b1000 %
b1000 W
b1000 }
b1000 !"
b1000 P
0)
b100000 .
b100000 H
b100000 g
b11000 '
b11000 o
b11000 x
b11000 {
b1000000000000000000001000 0
b1000000000000000000001000 \
b1000000000000000000001000 /
b1000000000000000000001000 ^
b1000000000000000000001000 u
b11000 4
b11000 O
b11000 i
b11000 n
b11000 t
b1101 U
0:
b11 A
b11 S
b11 d
0@
0>
b1 V
1E
#380000
0E
#390000
b111000 +
b111000 v
b111000 |
b1000 (
b1000 m
b1000 z
1)
b111000 4
b111000 O
b111000 i
b111000 n
b111000 t
b1000 2
b1000 X
b1000 k
b1000 w
b0 U
b11 ;
b11 T
b11 l
1:
b1101 V
1E
#400000
0E
#410000
b1100 6
b1100 J
b1100 N
b1100 h
b1000 -
b1000 `
b1000 p
b1000 *
b1000 I
b1000 y
b1100 (
b1100 m
b1100 z
b100 .
b100 H
b100 g
b10010110101000000000110 &
b10010110101000000000110 [
b10010110101000000000110 ]
b10010110101000000000110 a
b1000 '
b1000 o
b1000 x
b1000 {
b1 U
b0 ;
b0 T
b0 l
b1 A
b1 S
b1 d
1@
1>
b0 V
1E
#420000
0E
#430000
b10100000000100100 (
b10100000000100100 m
b10100000000100100 z
b1011 ,
b1011 #"
b1011 s
b10100000000100100 6
b10100000000100100 J
b10100000000100100 N
b10100000000100100 h
b1100 +
b1100 v
b1100 |
b1100 -
b1100 `
b1100 p
b1100 *
b1100 I
b1100 y
b10100000000011000 "
b10100000000011000 e
b10100000000011000 '"
b110 K
b1001011010100000000011000 j
b1001011010100000000011000 #
b1001011010100000000011000 &"
b10010110101000000000110 %"
b101000000000110 !
b101000000000110 f
b101000000000110 ("
b101000000000110 *"
b101000000000110 )"
b1011 $
b1011 Y
b1011 ~
b1011 ""
b10 %
b10 W
b10 }
b10 !"
b1010 r
b1011 q
b110 P
0)
b10100000000011000 .
b10100000000011000 H
b10100000000011000 g
b1100 4
b1100 O
b1100 i
b1100 n
b1100 t
b10010110101000000000110 /
b10010110101000000000110 ^
b10010110101000000000110 u
b10010110101000000000110 0
b10010110101000000000110 \
b1100 '
b1100 o
b1100 x
b1100 {
b110 U
0:
b11 A
b11 S
b11 d
0@
0>
b1 V
1E
#440000
0E
#450000
05
b10 (
b10 m
b10 z
b10 6
b10 J
b10 N
b10 h
b10100000000100100 +
b10100000000100100 v
b10100000000100100 |
b111 D
b111 G
b111 M
b1011 .
b1011 H
b1011 g
b10 *
b10 I
b10 y
b10 2
b10 X
b10 k
b10 w
b1011 1
b1011 Z
b1011 _
b1011 b
b10100000000100100 4
b10100000000100100 O
b10100000000100100 i
b10100000000100100 n
b10100000000100100 t
b111 U
b10 C
b10 L
b10 R
b0 A
b0 S
b0 d
1B
b110 V
1E
#460000
0E
#470000
b10 +
b10 v
b10 |
b1010 ,
b1010 #"
b1010 s
b10 4
b10 O
b10 i
b10 n
b10 t
b0 U
17
18
b111 V
1E
#480000
0E
#490000
b10000 (
b10000 m
b10000 z
b10000 6
b10000 J
b10000 N
b10000 h
1)
b100 D
b100 G
b100 M
b100 .
b100 H
b100 g
b1100 *
b1100 I
b1100 y
b100001101011000000000000000010 &
b100001101011000000000000000010 [
b100001101011000000000000000010 ]
b100001101011000000000000000010 a
07
b1 U
1:
b0 C
b0 L
b0 R
b1 A
b1 S
b1 d
1@
0B
1>
b0 V
1E
#500000
0E
#510000
b11000 (
b11000 m
b11000 z
b0 ,
b0 #"
b0 s
b11000 6
b11000 J
b11000 N
b11000 h
b10000 +
b10000 v
b10000 |
b10000 -
b10000 `
b10000 p
b10000 *
b10000 I
b10000 y
b1000 "
b1000 e
b1000 '"
b10 K
b110101100000000000000001000 j
b110101100000000000000001000 #
b110101100000000000000001000 &"
b1101011000000000000000010 %"
b10 !
b10 f
b10 ("
b10 *"
b10 )"
b1100 $
b1100 Y
b1100 ~
b1100 ""
b1101 %
b1101 W
b1101 }
b1101 !"
b0 r
b1100 q
b10 P
b1000 Q
0)
b1000 .
b1000 H
b1000 g
b10000 4
b10000 O
b10000 i
b10000 n
b10000 t
b100001101011000000000000000010 /
b100001101011000000000000000010 ^
b100001101011000000000000000010 u
b100001101011000000000000000010 0
b100001101011000000000000000010 \
b10000 '
b10000 o
b10000 x
b10000 {
b1100 U
0:
b11 A
b11 S
b11 d
0@
0>
b1 V
1E
#520000
0E
#530000
b1111 (
b1111 m
b1111 z
b1111 6
b1111 J
b1111 N
b1111 h
b11000 +
b11000 v
b11000 |
b10 .
b10 H
b10 g
b1101 *
b1101 I
b1101 y
b1101 2
b1101 X
b1101 k
b1101 w
b1100 1
b1100 Z
b1100 _
b1100 b
b11000 4
b11000 O
b11000 i
b11000 n
b11000 t
b1011 U
b10 A
b10 S
b10 d
1B
b1100 V
1E
#540000
0E
#550000
b1111 +
b1111 v
b1111 |
b1100 ,
b1100 #"
b1100 s
b1111 4
b1111 O
b1111 i
b1111 n
b1111 t
b0 U
17
08
b1011 V
1E
#560000
0E
#570000
b10100 (
b10100 m
b10100 z
b10100 6
b10100 J
b10100 N
b10100 h
1)
b100 .
b100 H
b100 g
b10000 *
b10000 I
b10000 y
b0 &
b0 [
b0 ]
b0 a
07
b1 U
1:
b1 A
b1 S
b1 d
1@
0B
1>
b0 V
1E
#580000
0E
#590000
b10100 (
b10100 m
b10100 z
b0 ,
b0 #"
b0 s
b10100 6
b10100 J
b10100 N
b10100 h
b10100 +
b10100 v
b10100 |
b10100 -
b10100 `
b10100 p
b10100 *
b10100 I
b10100 y
b0 "
b0 e
b0 '"
b0 K
b0 j
b0 #
b0 &"
b0 %"
b0 !
b0 f
b0 ("
b0 *"
b0 )"
b0 $
b0 Y
b0 ~
b0 ""
b0 %
b0 W
b0 }
b0 !"
b0 q
b0 P
b0 Q
0)
b0 .
b0 H
b0 g
b10100 4
b10100 O
b10100 i
b10100 n
b10100 t
b0 /
b0 ^
b0 u
b0 0
b0 \
b10100 '
b10100 o
b10100 x
b10100 {
b0 U
0:
b11 A
b11 S
b11 d
0@
0>
b1 V
1E
#600000
0E
#610000
b11000 (
b11000 m
b11000 z
b11000 6
b11000 J
b11000 N
b11000 h
1)
b100 .
b100 H
b100 g
b1000000000000000000001000 &
b1000000000000000000001000 [
b1000000000000000000001000 ]
b1000000000000000000001000 a
b0 2
b0 X
b0 k
b0 w
b0 1
b0 Z
b0 _
b0 b
b1 U
1:
b1 A
b1 S
b1 d
1@
1>
b0 V
1E
#620000
0E
#630000
b111000 (
b111000 m
b111000 z
b111000 6
b111000 J
b111000 N
b111000 h
b11000 +
b11000 v
b11000 |
b11000 -
b11000 `
b11000 p
b11000 *
b11000 I
b11000 y
b100000 "
b100000 e
b100000 '"
b1000 K
b100000000000000000000100000 j
b100000000000000000000100000 #
b100000000000000000000100000 &"
b1000000000000000000001000 %"
b1000 !
b1000 f
b1000 ("
b1000 *"
b1000 )"
b1000 %
b1000 W
b1000 }
b1000 !"
b1000 P
0)
b100000 .
b100000 H
b100000 g
b11000 4
b11000 O
b11000 i
b11000 n
b11000 t
b1000000000000000000001000 /
b1000000000000000000001000 ^
b1000000000000000000001000 u
b1000000000000000000001000 0
b1000000000000000000001000 \
b11000 '
b11000 o
b11000 x
b11000 {
b1101 U
0:
b11 A
b11 S
b11 d
0@
0>
b1 V
1E
#640000
0E
#650000
b111000 +
b111000 v
b111000 |
b1000 (
b1000 m
b1000 z
1)
b1000 2
b1000 X
b1000 k
b1000 w
b111000 4
b111000 O
b111000 i
b111000 n
b111000 t
b0 U
b11 ;
b11 T
b11 l
1:
b1101 V
1E
#660000
0E
#670000
b1100 6
b1100 J
b1100 N
b1100 h
b1000 -
b1000 `
b1000 p
b1000 *
b1000 I
b1000 y
b1100 (
b1100 m
b1100 z
b100 .
b100 H
b100 g
b10010110101000000000110 &
b10010110101000000000110 [
b10010110101000000000110 ]
b10010110101000000000110 a
b1000 '
b1000 o
b1000 x
b1000 {
b1 U
b0 ;
b0 T
b0 l
b1 A
b1 S
b1 d
1@
1>
b0 V
1E
#680000
0E
#690000
b10100000000100100 (
b10100000000100100 m
b10100000000100100 z
b1011 ,
b1011 #"
b1011 s
b10100000000100100 6
b10100000000100100 J
b10100000000100100 N
b10100000000100100 h
b1100 *
b1100 I
b1100 y
b1100 -
b1100 `
b1100 p
b1100 +
b1100 v
b1100 |
b10100000000011000 "
b10100000000011000 e
b10100000000011000 '"
b110 K
b1001011010100000000011000 j
b1001011010100000000011000 #
b1001011010100000000011000 &"
b10010110101000000000110 %"
b101000000000110 !
b101000000000110 f
b101000000000110 ("
b101000000000110 *"
b101000000000110 )"
b1011 $
b1011 Y
b1011 ~
b1011 ""
b10 %
b10 W
b10 }
b10 !"
b1010 r
b1011 q
b110 P
0)
b10100000000011000 .
b10100000000011000 H
b10100000000011000 g
b1100 '
b1100 o
b1100 x
b1100 {
b10010110101000000000110 0
b10010110101000000000110 \
b10010110101000000000110 /
b10010110101000000000110 ^
b10010110101000000000110 u
b1100 4
b1100 O
b1100 i
b1100 n
b1100 t
b110 U
0:
b11 A
b11 S
b11 d
0@
0>
b1 V
1E
